154	153
0	12
0	86
1	15
1	72
2	66
3	1
3	51
3	67
3	111
7	55
7	101
7	129
8	18
8	44
8	69
8	114
9	29
9	36
9	124
10	43
10	45
10	50
12	8
12	10
12	65
12	74
13	40
13	144
18	87
18	120
20	47
20	112
20	123
20	128
21	20
21	103
21	113
21	143
22	79
22	135
22	138
25	46
25	100
25	110
25	134
26	24
26	37
26	39
29	48
29	99
29	147
30	71
34	7
34	97
34	118
35	83
35	85
35	90
35	94
36	109
43	22
43	64
43	119
43	151
44	2
51	26
53	21
62	54
62	73
64	19
65	23
65	30
67	13
69	75
70	28
70	58
70	82
71	27
71	68
71	107
72	91
72	117
72	139
74	9
78	11
78	32
78	141
80	25
80	78
81	41
83	16
83	105
85	62
85	70
86	3
86	35
86	53
86	92
87	42
87	102
87	126
92	34
92	56
92	80
92	145
94	59
94	96
94	122
94	125
96	38
96	77
96	137
97	5
97	88
97	132
105	49
105	115
105	121
105	152
111	14
111	116
114	81
114	131
114	140
114	150
116	52
116	84
116	142
118	104
118	130
118	146
119	17
120	33
122	6
122	98
122	149
124	31
124	93
124	106
124	148
125	57
125	133
131	4
131	63
131	76
131	108
140	60
140	61
140	89
140	95
150	127
151	136
151	153
