639	638
0	60
0	85
0	89
0	107
0	180
0	182
0	276
0	310
0	362
0	451
0	546
0	579
6	83
6	158
6	181
6	289
6	394
6	421
12	154
12	337
12	344
12	471
12	582
14	402
14	491
14	521
15	136
15	357
15	399
15	494
21	3
21	4
21	31
21	150
21	404
21	456
21	627
28	61
28	138
28	391
28	580
28	600
34	56
34	210
34	233
34	288
34	296
34	336
34	426
34	489
34	526
34	599
34	624
35	29
35	204
35	214
35	258
35	353
35	383
35	387
35	417
35	486
35	500
38	57
41	347
60	255
60	395
60	445
63	9
63	220
63	309
63	314
63	325
63	338
63	425
63	458
63	460
63	586
63	591
63	630
68	113
68	415
68	483
85	14
85	34
85	110
85	262
85	279
85	413
85	418
85	449
85	482
85	519
85	560
85	594
86	27
86	84
86	201
86	273
86	313
86	315
86	339
86	356
86	368
86	385
86	535
86	536
89	153
89	185
89	247
89	328
89	467
89	505
89	543
89	573
92	17
92	30
92	364
92	497
92	538
92	632
107	63
107	192
107	333
107	448
107	479
107	544
107	551
107	554
107	570
110	51
110	130
110	176
110	295
110	369
110	373
110	390
110	465
110	530
110	542
110	548
110	605
120	13
120	82
120	88
120	91
120	266
120	345
120	541
124	108
124	159
124	188
124	191
124	264
129	37
129	96
129	329
129	452
129	510
129	557
141	196
141	211
141	363
141	405
141	414
143	327
143	371
153	195
153	410
180	28
180	308
180	614
182	6
182	12
182	38
182	41
182	68
182	129
182	330
182	561
182	584
185	160
185	179
185	217
185	380
185	556
185	572
187	11
187	67
187	114
187	268
187	354
187	382
192	58
192	197
192	221
192	322
192	516
192	532
192	610
193	90
193	151
193	168
193	342
193	502
193	503
213	227
213	312
213	348
213	430
213	487
213	520
213	537
213	558
213	596
213	637
237	331
237	525
241	45
241	79
241	228
241	367
241	428
241	431
241	492
241	568
247	194
247	202
247	229
247	290
247	478
247	638
255	23
255	147
255	152
255	265
255	303
255	318
255	473
255	484
255	565
255	590
255	593
255	603
259	292
259	326
259	343
259	496
262	142
276	35
276	124
276	259
276	480
276	534
276	553
276	602
279	43
279	81
279	109
279	126
279	358
279	392
279	499
279	563
293	320
308	131
308	134
308	137
308	199
308	212
308	277
308	359
308	378
308	393
308	504
308	592
308	595
310	86
310	92
310	105
310	193
310	237
310	241
310	388
310	406
310	423
310	440
310	523
310	583
311	48
311	416
311	522
311	585
324	19
324	275
324	464
324	509
328	238
328	612
330	93
330	224
330	226
330	257
330	301
330	306
330	374
330	377
330	386
330	559
330	606
333	8
333	40
333	162
333	240
333	287
333	297
333	300
333	498
333	587
334	94
334	256
334	389
334	539
334	635
340	132
340	230
340	272
340	444
340	549
340	620
362	15
362	293
362	334
362	375
362	432
362	438
362	463
362	475
362	547
362	571
362	601
362	628
375	33
375	52
375	115
375	145
375	207
375	294
375	476
375	490
388	46
388	55
388	70
388	365
388	545
388	566
388	618
406	164
413	396
413	429
413	434
418	121
418	122
418	209
418	248
418	341
418	361
418	461
418	488
418	517
418	564
418	589
423	5
423	98
423	267
423	283
423	291
423	298
423	507
432	442
438	26
438	39
438	72
438	99
438	252
438	319
438	422
440	95
440	263
440	419
445	100
445	112
445	235
445	397
445	409
445	437
445	462
445	518
445	528
448	166
448	245
448	270
448	376
448	408
448	424
448	433
449	550
451	21
451	120
451	141
451	143
451	187
451	213
451	324
451	457
451	577
451	609
457	22
457	101
457	139
457	146
457	370
457	427
457	625
463	10
463	77
463	125
463	219
463	243
463	274
463	302
463	366
463	454
463	511
467	24
467	36
467	73
467	171
467	183
467	218
467	234
467	384
467	552
467	569
467	575
467	616
475	78
475	260
475	349
475	450
479	128
479	304
479	350
480	69
480	117
480	533
480	581
480	617
482	186
482	200
482	455
482	508
482	604
505	7
505	44
505	80
505	133
505	157
505	184
505	253
505	335
505	453
519	118
519	223
519	239
519	420
519	469
519	506
519	512
519	527
523	64
523	170
523	189
523	206
523	249
523	251
523	398
523	435
523	447
523	524
523	613
534	76
534	236
534	372
543	75
543	285
543	317
543	403
543	459
543	468
543	474
543	531
543	615
544	16
544	47
544	74
544	102
544	106
544	215
544	332
544	346
544	477
544	515
544	576
544	597
546	340
546	629
547	49
547	62
547	97
547	119
547	127
547	140
547	165
547	355
547	485
547	513
547	607
547	611
551	1
551	244
551	578
553	144
553	216
553	222
554	352
554	407
554	555
554	622
560	59
560	173
560	198
560	271
560	540
560	574
561	116
561	149
561	169
561	203
561	280
561	316
561	381
561	470
561	501
561	562
561	588
561	621
571	156
571	231
571	284
571	321
571	436
571	441
571	446
571	466
571	567
571	598
573	20
573	50
573	53
573	111
573	155
573	178
573	246
573	254
573	282
573	443
573	495
573	619
577	2
577	66
577	87
577	411
579	311
583	18
583	205
584	65
584	104
584	242
584	626
594	71
594	175
594	190
594	232
594	250
594	269
594	634
602	163
602	225
602	307
602	472
602	633
609	135
609	177
609	286
609	299
609	351
609	360
609	439
609	481
609	493
609	514
609	623
614	54
614	123
614	148
614	161
614	167
614	174
614	278
614	400
614	401
614	608
614	631
614	636
628	42
628	103
628	208
628	261
628	281
628	305
628	323
628	379
628	412
628	529
629	25
629	32
629	172
