30	450
0	1	10
0	3	7
0	5	8
0	7	2
0	9	5
0	11	13
0	13	1
0	15	11
0	17	14
0	19	12
0	21	9
0	23	3
0	25	6
0	27	15
0	29	4
1	0	7
1	2	13
1	4	6
1	6	14
1	8	9
1	10	1
1	12	3
1	14	4
1	16	5
1	18	15
1	20	11
1	22	12
1	24	2
1	26	10
1	28	8
2	1	6
2	3	14
2	5	8
2	7	12
2	9	3
2	11	1
2	13	7
2	15	13
2	17	5
2	19	4
2	21	2
2	23	15
2	25	11
2	27	9
2	29	10
3	0	5
3	2	12
3	4	11
3	6	15
3	8	10
3	10	2
3	12	7
3	14	8
3	16	1
3	18	9
3	20	14
3	22	4
3	24	6
3	26	13
3	28	3
4	1	1
4	3	8
4	5	9
4	7	7
4	9	4
4	11	2
4	13	14
4	15	6
4	17	15
4	19	11
4	21	10
4	23	3
4	25	13
4	27	5
4	29	12
5	0	6
5	2	11
5	4	3
5	6	8
5	8	10
5	10	1
5	12	5
5	14	4
5	16	13
5	18	2
5	20	7
5	22	14
5	24	12
5	26	15
5	28	9
6	1	15
6	3	2
6	5	13
6	7	6
6	9	1
6	11	4
6	13	12
6	15	10
6	17	9
6	19	7
6	21	11
6	23	14
6	25	8
6	27	5
6	29	3
7	0	11
7	2	5
7	4	9
7	6	8
7	8	4
7	10	2
7	12	7
7	14	3
7	16	6
7	18	14
7	20	1
7	22	12
7	24	15
7	26	13
7	28	10
8	1	4
8	3	6
8	5	14
8	7	12
8	9	5
8	11	13
8	13	11
8	15	9
8	17	8
8	19	7
8	21	10
8	23	1
8	25	15
8	27	2
8	29	3
9	0	13
9	2	1
9	4	14
9	6	9
9	8	11
9	10	2
9	12	4
9	14	12
9	16	10
9	18	8
9	20	5
9	22	3
9	24	15
9	26	7
9	28	6
10	1	3
10	3	15
10	5	11
10	7	2
10	9	1
10	11	8
10	13	13
10	15	9
10	17	5
10	19	4
10	21	14
10	23	10
10	25	12
10	27	6
10	29	7
11	0	9
11	2	12
11	4	13
11	6	4
11	8	6
11	10	10
11	12	1
11	14	3
11	16	5
11	18	7
11	20	2
11	22	15
11	24	14
11	26	11
11	28	8
12	1	7
12	3	1
12	5	14
12	7	11
12	9	12
12	11	8
12	13	10
12	15	4
12	17	6
12	19	2
12	21	13
12	23	9
12	25	3
12	27	15
12	29	5
13	0	5
13	2	6
13	4	4
13	6	13
13	8	14
13	10	7
13	12	8
13	14	3
13	16	15
13	18	11
13	20	12
13	22	1
13	24	10
13	26	9
13	28	2
14	1	6
14	3	12
14	5	4
14	7	3
14	9	9
14	11	8
14	13	14
14	15	7
14	17	5
14	19	15
14	21	13
14	23	1
14	25	11
14	27	2
14	29	10
15	0	2
15	2	4
15	4	13
15	6	11
15	8	8
15	10	7
15	12	1
15	14	14
15	16	15
15	18	6
15	20	5
15	22	12
15	24	3
15	26	10
15	28	9
16	1	2
16	3	8
16	5	13
16	7	4
16	9	14
16	11	11
16	13	12
16	15	7
16	17	1
16	19	3
16	21	15
16	23	10
16	25	5
16	27	9
16	29	6
17	0	8
17	2	6
17	4	14
17	6	2
17	8	5
17	10	1
17	12	9
17	14	3
17	16	15
17	18	7
17	20	12
17	22	4
17	24	13
17	26	10
17	28	11
18	1	3
18	3	5
18	5	11
18	7	2
18	9	10
18	11	9
18	13	4
18	15	14
18	17	8
18	19	13
18	21	1
18	23	7
18	25	15
18	27	6
18	29	12
19	0	4
19	2	6
19	4	2
19	6	12
19	8	5
19	10	10
19	12	1
19	14	13
19	16	9
19	18	3
19	20	11
19	22	14
19	24	8
19	26	7
19	28	15
20	1	3
20	3	13
20	5	2
20	7	14
20	9	9
20	11	4
20	13	6
20	15	10
20	17	15
20	19	1
20	21	5
20	23	12
20	25	8
20	27	11
20	29	7
21	0	3
21	2	15
21	4	2
21	6	8
21	8	9
21	10	5
21	12	12
21	14	11
21	16	6
21	18	7
21	20	10
21	22	1
21	24	13
21	26	4
21	28	14
22	1	12
22	3	8
22	5	11
22	7	9
22	9	14
22	11	2
22	13	3
22	15	1
22	17	15
22	19	7
22	21	6
22	23	10
22	25	4
22	27	13
22	29	5
23	0	13
23	2	6
23	4	5
23	6	8
23	8	2
23	10	4
23	12	9
23	14	7
23	16	14
23	18	10
23	20	3
23	22	12
23	24	15
23	26	11
23	28	1
24	1	2
24	3	9
24	5	14
24	7	12
24	9	15
24	11	11
24	13	3
24	15	5
24	17	8
24	19	10
24	21	4
24	23	13
24	25	1
24	27	7
24	29	6
25	0	9
25	2	1
25	4	13
25	6	12
25	8	6
25	10	3
25	12	7
25	14	4
25	16	15
25	18	2
25	20	10
25	22	14
25	24	8
25	26	11
25	28	5
26	1	9
26	3	3
26	5	8
26	7	14
26	9	2
26	11	6
26	13	1
26	15	11
26	17	13
26	19	7
26	21	10
26	23	4
26	25	15
26	27	5
26	29	12
27	0	13
27	2	15
27	4	1
27	6	2
27	8	10
27	10	6
27	12	9
27	14	14
27	16	3
27	18	7
27	20	8
27	22	4
27	24	12
27	26	5
27	28	11
28	1	5
28	3	8
28	5	4
28	7	14
28	9	11
28	11	9
28	13	15
28	15	10
28	17	1
28	19	6
28	21	13
28	23	2
28	25	12
28	27	3
28	29	7
29	0	12
29	2	3
29	4	8
29	6	13
29	8	9
29	10	5
29	12	4
29	14	15
29	16	2
29	18	14
29	20	11
29	22	10
29	24	1
29	26	7
29	28	6
