40	800
0	1	18
0	3	4
0	5	3
0	7	13
0	9	10
0	11	19
0	13	16
0	15	6
0	17	14
0	19	8
0	21	1
0	23	5
0	25	17
0	27	7
0	29	11
0	31	20
0	33	2
0	35	12
0	37	15
0	39	9
1	0	15
1	2	14
1	4	9
1	6	13
1	8	16
1	10	11
1	12	17
1	14	5
1	16	6
1	18	19
1	20	18
1	22	4
1	24	1
1	26	3
1	28	7
1	30	10
1	32	2
1	34	12
1	36	8
1	38	20
2	1	20
2	3	17
2	5	8
2	7	6
2	9	16
2	11	11
2	13	7
2	15	18
2	17	19
2	19	12
2	21	14
2	23	13
2	25	5
2	27	1
2	29	9
2	31	10
2	33	3
2	35	2
2	37	15
2	39	4
3	0	3
3	2	12
3	4	19
3	6	15
3	8	14
3	10	11
3	12	13
3	14	6
3	16	5
3	18	16
3	20	2
3	22	7
3	24	20
3	26	1
3	28	18
3	30	10
3	32	9
3	34	8
3	36	17
3	38	4
4	1	13
4	3	10
4	5	20
4	7	15
4	9	8
4	11	6
4	13	9
4	15	2
4	17	3
4	19	4
4	21	18
4	23	11
4	25	12
4	27	1
4	29	19
4	31	7
4	33	16
4	35	14
4	37	5
4	39	17
5	0	20
5	2	5
5	4	14
5	6	15
5	8	16
5	10	2
5	12	6
5	14	4
5	16	7
5	18	18
5	20	9
5	22	1
5	24	13
5	26	12
5	28	3
5	30	11
5	32	17
5	34	8
5	36	19
5	38	10
6	1	18
6	3	17
6	5	1
6	7	5
6	9	19
6	11	14
6	13	2
6	15	9
6	17	7
6	19	11
6	21	6
6	23	16
6	25	8
6	27	15
6	29	10
6	31	3
6	33	13
6	35	4
6	37	20
6	39	12
7	0	2
7	2	9
7	4	4
7	6	18
7	8	15
7	10	12
7	12	3
7	14	10
7	16	13
7	18	8
7	20	11
7	22	5
7	24	17
7	26	7
7	28	1
7	30	19
7	32	14
7	34	20
7	36	6
7	38	16
8	1	17
8	3	4
8	5	9
8	7	10
8	9	14
8	11	11
8	13	5
8	15	12
8	17	13
8	19	8
8	21	6
8	23	18
8	25	15
8	27	2
8	29	16
8	31	3
8	33	7
8	35	1
8	37	19
8	39	20
9	0	14
9	2	20
9	4	10
9	6	13
9	8	19
9	10	17
9	12	11
9	14	6
9	16	18
9	18	16
9	20	2
9	22	4
9	24	5
9	26	7
9	28	1
9	30	8
9	32	12
9	34	15
9	36	3
9	38	9
10	1	17
10	3	8
10	5	1
10	7	15
10	9	18
10	11	10
10	13	6
10	15	16
10	17	5
10	19	19
10	21	3
10	23	7
10	25	2
10	27	12
10	29	9
10	31	14
10	33	13
10	35	11
10	37	20
10	39	4
11	0	16
11	2	9
11	4	12
11	6	20
11	8	15
11	10	11
11	12	3
11	14	5
11	16	8
11	18	17
11	20	6
11	22	7
11	24	19
11	26	1
11	28	2
11	30	4
11	32	10
11	34	18
11	36	13
11	38	14
12	1	20
12	3	6
12	5	17
12	7	7
12	9	15
12	11	12
12	13	10
12	15	1
12	17	18
12	19	16
12	21	8
12	23	13
12	25	5
12	27	11
12	29	14
12	31	3
12	33	19
12	35	9
12	37	4
12	39	2
13	0	10
13	2	18
13	4	20
13	6	14
13	8	2
13	10	4
13	12	6
13	14	17
13	16	12
13	18	16
13	20	13
13	22	7
13	24	19
13	26	15
13	28	8
13	30	3
13	32	11
13	34	5
13	36	1
13	38	9
14	1	15
14	3	7
14	5	12
14	7	17
14	9	9
14	11	5
14	13	10
14	15	2
14	17	20
14	19	6
14	21	8
14	23	3
14	25	14
14	27	4
14	29	11
14	31	18
14	33	16
14	35	13
14	37	1
14	39	19
15	0	5
15	2	2
15	4	20
15	6	15
15	8	4
15	10	7
15	12	14
15	14	19
15	16	3
15	18	17
15	20	12
15	22	6
15	24	9
15	26	8
15	28	16
15	30	18
15	32	1
15	34	11
15	36	10
15	38	13
16	1	16
16	3	20
16	5	13
16	7	2
16	9	8
16	11	7
16	13	12
16	15	10
16	17	4
16	19	1
16	21	5
16	23	17
16	25	6
16	27	15
16	29	11
16	31	18
16	33	3
16	35	19
16	37	9
16	39	14
17	0	20
17	2	11
17	4	1
17	6	4
17	8	9
17	10	18
17	12	2
17	14	19
17	16	16
17	18	3
17	20	7
17	22	12
17	24	14
17	26	8
17	28	13
17	30	5
17	32	6
17	34	10
17	36	15
17	38	17
18	1	20
18	3	5
18	5	15
18	7	2
18	9	6
18	11	9
18	13	4
18	15	11
18	17	3
18	19	12
18	21	7
18	23	13
18	25	8
18	27	19
18	29	10
18	31	16
18	33	1
18	35	17
18	37	18
18	39	14
19	0	12
19	2	13
19	4	2
19	6	18
19	8	16
19	10	20
19	12	15
19	14	1
19	16	6
19	18	7
19	20	11
19	22	19
19	24	10
19	26	5
19	28	4
19	30	3
19	32	14
19	34	9
19	36	17
19	38	8
20	1	8
20	3	11
20	5	10
20	7	9
20	9	4
20	11	2
20	13	20
20	15	1
20	17	5
20	19	14
20	21	3
20	23	19
20	25	12
20	27	15
20	29	13
20	31	7
20	33	6
20	35	18
20	37	16
20	39	17
21	0	17
21	2	16
21	4	10
21	6	1
21	8	19
21	10	14
21	12	2
21	14	7
21	16	12
21	18	8
21	20	20
21	22	13
21	24	11
21	26	15
21	28	3
21	30	18
21	32	4
21	34	9
21	36	6
21	38	5
22	1	19
22	3	16
22	5	3
22	7	15
22	9	4
22	11	6
22	13	13
22	15	7
22	17	14
22	19	10
22	21	5
22	23	11
22	25	2
22	27	1
22	29	17
22	31	9
22	33	20
22	35	12
22	37	8
22	39	18
23	0	15
23	2	7
23	4	8
23	6	10
23	8	18
23	10	1
23	12	16
23	14	17
23	16	9
23	18	3
23	20	13
23	22	20
23	24	2
23	26	14
23	28	19
23	30	6
23	32	5
23	34	12
23	36	11
23	38	4
24	1	4
24	3	17
24	5	7
24	7	2
24	9	14
24	11	6
24	13	13
24	15	5
24	17	20
24	19	18
24	21	19
24	23	9
24	25	12
24	27	10
24	29	11
24	31	8
24	33	1
24	35	3
24	37	16
24	39	15
25	0	13
25	2	20
25	4	8
25	6	1
25	8	19
25	10	16
25	12	4
25	14	18
25	16	7
25	18	14
25	20	5
25	22	9
25	24	3
25	26	2
25	28	6
25	30	17
25	32	11
25	34	12
25	36	10
25	38	15
26	1	3
26	3	17
26	5	9
26	7	15
26	9	8
26	11	4
26	13	12
26	15	14
26	17	1
26	19	19
26	21	16
26	23	7
26	25	11
26	27	10
26	29	5
26	31	20
26	33	2
26	35	6
26	37	18
26	39	13
27	0	18
27	2	7
27	4	1
27	6	5
27	8	3
27	10	19
27	12	15
27	14	17
27	16	6
27	18	4
27	20	11
27	22	9
27	24	10
27	26	16
27	28	12
27	30	2
27	32	14
27	34	8
27	36	20
27	38	13
28	1	20
28	3	10
28	5	9
28	7	7
28	9	12
28	11	8
28	13	16
28	15	13
28	17	17
28	19	18
28	21	5
28	23	6
28	25	11
28	27	15
28	29	14
28	31	4
28	33	19
28	35	3
28	37	1
28	39	2
29	0	6
29	2	20
29	4	4
29	6	17
29	8	13
29	10	5
29	12	7
29	14	15
29	16	10
29	18	8
29	20	14
29	22	16
29	24	19
29	26	3
29	28	9
29	30	12
29	32	2
29	34	1
29	36	18
29	38	11
30	1	13
30	3	2
30	5	18
30	7	11
30	9	1
30	11	6
30	13	10
30	15	14
30	17	8
30	19	15
30	21	5
30	23	16
30	25	12
30	27	20
30	29	7
30	31	17
30	33	3
30	35	4
30	37	19
30	39	9
31	0	7
31	2	13
31	4	14
31	6	5
31	8	1
31	10	20
31	12	2
31	14	10
31	16	8
31	18	9
31	20	6
31	22	16
31	24	12
31	26	17
31	28	18
31	30	3
31	32	4
31	34	19
31	36	15
31	38	11
32	1	5
32	3	12
32	5	7
32	7	10
32	9	19
32	11	16
32	13	9
32	15	18
32	17	17
32	19	15
32	21	2
32	23	8
32	25	1
32	27	4
32	29	14
32	31	6
32	33	11
32	35	20
32	37	3
32	39	13
33	0	6
33	2	20
33	4	15
33	6	17
33	8	2
33	10	4
33	12	5
33	14	18
33	16	13
33	18	10
33	20	16
33	22	9
33	24	7
33	26	11
33	28	19
33	30	8
33	32	12
33	34	3
33	36	1
33	38	14
34	1	12
34	3	18
34	5	16
34	7	19
34	9	8
34	11	4
34	13	13
34	15	9
34	17	1
34	19	10
34	21	6
34	23	3
34	25	11
34	27	14
34	29	20
34	31	5
34	33	15
34	35	2
34	37	17
34	39	7
35	0	9
35	2	7
35	4	17
35	6	1
35	8	4
35	10	15
35	12	13
35	14	2
35	16	19
35	18	14
35	20	10
35	22	8
35	24	6
35	26	11
35	28	3
35	30	5
35	32	20
35	34	12
35	36	18
35	38	16
36	1	18
36	3	16
36	5	11
36	7	5
36	9	19
36	11	10
36	13	14
36	15	2
36	17	13
36	19	6
36	21	8
36	23	1
36	25	7
36	27	9
36	29	12
36	31	17
36	33	20
36	35	15
36	37	4
36	39	3
37	0	17
37	2	13
37	4	20
37	6	18
37	8	2
37	10	14
37	12	7
37	14	1
37	16	5
37	18	6
37	20	9
37	22	12
37	24	4
37	26	19
37	28	11
37	30	8
37	32	10
37	34	15
37	36	16
37	38	3
38	1	8
38	3	11
38	5	20
38	7	9
38	9	19
38	11	1
38	13	12
38	15	5
38	17	3
38	19	7
38	21	13
38	23	6
38	25	17
38	27	10
38	29	18
38	31	14
38	33	15
38	35	16
38	37	4
38	39	2
39	0	20
39	2	10
39	4	14
39	6	12
39	8	17
39	10	5
39	12	7
39	14	11
39	16	4
39	18	3
39	20	19
39	22	13
39	24	6
39	26	16
39	28	9
39	30	1
39	32	2
39	34	8
39	36	18
39	38	15
