10	50
0	1	3
0	3	5
0	5	2
0	7	1
0	9	4
1	0	4
1	2	5
1	4	2
1	6	3
1	8	1
2	1	5
2	3	3
2	5	2
2	7	1
2	9	4
3	0	5
3	2	2
3	4	1
3	6	3
3	8	4
4	1	5
4	3	4
4	5	1
4	7	2
4	9	3
5	0	5
5	2	3
5	4	4
5	6	2
5	8	1
6	1	2
6	3	3
6	5	5
6	7	1
6	9	4
7	0	5
7	2	1
7	4	2
7	6	3
7	8	4
8	1	1
8	3	2
8	5	3
8	7	4
8	9	5
9	0	2
9	2	4
9	4	1
9	6	3
9	8	5
